com/nespalier/controller/TransactionController.class
com/nespalier/model/Compte.class
com/nespalier/BudgetApplication.class
com/nespalier/services/impl/PosteServiceImpl.class
com/nespalier/model/Poste.class
com/nespalier/repo/IPosteRepo.class
com/nespalier/commons/BaseModel.class
com/nespalier/model/Produit.class
com/nespalier/model/Transaction.class
com/nespalier/commons/DonneesTech.class
com/nespalier/commons/controller/BaseController.class
com/nespalier/services/impl/PorduitServiceImpl.class
com/nespalier/repo/IProduitRepo.class
com/nespalier/controller/ProduitController.class
com/nespalier/repo/ITransactionRepo.class
com/nespalier/model/Epargne.class
com/nespalier/model/Livret.class
com/nespalier/services/IPosteService.class
com/nespalier/controller/PosteController.class
com/nespalier/commons/constantes/Mois.class
com/nespalier/commons/services/SharedServices.class
com/nespalier/model/Revenue.class
com/nespalier/services/ITransactionService.class
com/nespalier/services/IProduitService.class
CorsConfig.class
com/nespalier/model/Charge.class
com/nespalier/services/impl/TransactionServiceImpl.class
com/nespalier/commons/Constantes.class
com/nespalier/commons/services/IBaseCrud.class
